{
    "KPlugin": {
        "Authors": [
            {
                "Email": "pino@kde.org",
                "Name": "Pino Toscano",
                "Name[az]": "Pino Toscano",
                "Name[ca@valencia]": "Pino Toscano",
                "Name[ca]": "Pino Toscano",
                "Name[cs]": "Pino Toscano",
                "Name[da]": "Pino Toscano",
                "Name[de]": "Pino Toscano",
                "Name[el]": "Pino Toscano",
                "Name[en_GB]": "Pino Toscano",
                "Name[es]": "Pino Toscano",
                "Name[et]": "Pino Toscano",
                "Name[eu]": "Pino Toscano",
                "Name[fi]": "Pino Toscano",
                "Name[fr]": "Pino Toscano",
                "Name[gl]": "Pino Toscano",
                "Name[ia]": "Pino Toscano",
                "Name[it]": "Pino Toscano",
                "Name[ko]": "Pino Toscano",
                "Name[lt]": "Pino Toscano",
                "Name[nl]": "Pino Toscano",
                "Name[nn]": "Pino Toscano",
                "Name[pl]": "Pino Toscano",
                "Name[pt]": "Pino Toscano",
                "Name[pt_BR]": "Pino Toscano",
                "Name[ru]": "Pino Toscano",
                "Name[sk]": "Pino Toscano",
                "Name[sl]": "Pino Toscano",
                "Name[sr@ijekavian]": "Пино Тоскано",
                "Name[sr@ijekavianlatin]": "Pino Toskano",
                "Name[sr@latin]": "Pino Toskano",
                "Name[sr]": "Пино Тоскано",
                "Name[sv]": "Pino Toscano",
                "Name[tr]": "Pino Toscano",
                "Name[uk]": "Pino Toscano",
                "Name[x-test]": "xxPino Toscanoxx",
                "Name[zh_CN]": "Pino Toscano",
                "Name[zh_TW]": "Pino Toscano"
            }
        ],
        "Copyright": "© 2006-2008 Pino Toscano",
        "Copyright[az]": "© 2006-2008 Pino Toscano",
        "Copyright[ca@valencia]": "© 2006-2008 Pino Toscano",
        "Copyright[ca]": "© 2006-2008 Pino Toscano",
        "Copyright[cs]": "© 2006-2008 Pino Toscano",
        "Copyright[da]": "© 2006-2008 Pino Toscano",
        "Copyright[de]": "© 2006-2008 Pino Toscano",
        "Copyright[el]": "© 2006-2008 Pino Toscano",
        "Copyright[en_GB]": "© 2006-2008 Pino Toscano",
        "Copyright[es]": "© 2006-2008 Pino Toscano",
        "Copyright[et]": "© 2006-2008: Pino Toscano",
        "Copyright[eu]": "© 2006-2008 Pino Toscano",
        "Copyright[fi]": "© 2006–2008 Pino Toscano",
        "Copyright[fr]": "© 2006-2008 Pino Toscano",
        "Copyright[gl]": "© 2006-2008 Pino Toscano",
        "Copyright[ia]": "© 2006-2008 Pino Toscano",
        "Copyright[it]": "© 2006-2008 Pino Toscano",
        "Copyright[ko]": "© 2006-2008 Pino Toscano",
        "Copyright[lt]": "© 2006-2008 Pino Toscano",
        "Copyright[nl]": "© 2006-2008 Pino Toscano",
        "Copyright[nn]": "© 2006–2008 Pino Toscano",
        "Copyright[pl]": "© 2006-2008 Pino Toscano",
        "Copyright[pt]": "© 2006-2008 Pino Toscano",
        "Copyright[pt_BR]": "© 2006-2008 Pino Toscano",
        "Copyright[ru]": "© Pino Toscano, 2006-2008",
        "Copyright[sk]": "© 2006-2008 Pino Toscano",
        "Copyright[sl]": "© 2006-2008 Pino Toscano",
        "Copyright[sr@ijekavian]": "© 2006–2008, Пино Тоскано",
        "Copyright[sr@ijekavianlatin]": "© 2006–2008, Pino Toskano",
        "Copyright[sr@latin]": "© 2006–2008, Pino Toskano",
        "Copyright[sr]": "© 2006–2008, Пино Тоскано",
        "Copyright[sv]": "© 2006-2008 Pino Toscano",
        "Copyright[tr]": "© 2006-2008 Pino Toscano",
        "Copyright[uk]": "© Pino Toscano, 2006–2008",
        "Copyright[x-test]": "xx© 2006-2008 Pino Toscanoxx",
        "Copyright[zh_CN]": "© 2006-2008 Pino Toscano",
        "Copyright[zh_TW]": "© 2006-2008 Pino Toscano",
        "Description": "DjVu backend based on DjVuLibre",
        "Description[az]": "DjVuLibre'yə əsaslanan DjVu modulu",
        "Description[ca@valencia]": "Dorsal DjVu basat en el DjVuLibre",
        "Description[ca]": "Dorsal DjVu basat en el DjVuLibre",
        "Description[cs]": "Implementace DjVu založena na DjVuLibre",
        "Description[da]": "DjVu-backend baseret på DjVuLibre",
        "Description[de]": "Anzeigemodul für DjVu auf der Basis von DjVuLibre",
        "Description[el]": "Σύστημα υποστήριξης DjVu με βάση το DjVuLibre",
        "Description[en_GB]": "DjVu backend based on DjVuLibre",
        "Description[es]": "Motor DjVu basado en DjVuLibre",
        "Description[et]": "DjVu taustaprogramm DjVuLibre alusel",
        "Description[eu]": "DjVu-ren bizkarraldekoa DjVuLibre-n oinarritua",
        "Description[fi]": "DjVuLibreen perustuva DjVu-taustaosa",
        "Description[fr]": "Moteur DjVu utilisant DjVuLibre",
        "Description[gl]": "Infraestrutura de DjVu baseada en DjVuLibre.",
        "Description[ia]": "Retro-Administration de DjVu basate sur DjVuLibre.",
        "Description[it]": "Backend DjVu basato su DjVuLibre",
        "Description[ko]": "DjVuLibre 기반 DjVu 백엔드",
        "Description[lt]": "DjVu programinė sąsaja pagrįsta DjVuLibre",
        "Description[nl]": "DjVu-backend gebaseerd op DjVuLibre",
        "Description[nn]": "DjVu-motor basert på DjVuLibre",
        "Description[pl]": "Silnik DjVu oparty na DjVuLibre",
        "Description[pt]": "Infra-estrutura do DjVu com base no DjVuLibre",
        "Description[pt_BR]": "Infraestrutura DjVu, baseado no DjVuLibre",
        "Description[ru]": "Модуль поддержки формата DjVu на основе библиотеки DjVuLibre",
        "Description[sk]": "DjVu backend postavený na DjVuLibre",
        "Description[sl]": "Zaledje za DjVu, ki temelji na DjVuLibre",
        "Description[sr@ijekavian]": "Позадина за ДјВу заснована на ДјВу‑либреу",
        "Description[sr@ijekavianlatin]": "Pozadina za DjVu zasnovana na DjVuLibreu",
        "Description[sr@latin]": "Pozadina za DjVu zasnovana na DjVuLibreu",
        "Description[sr]": "Позадина за ДјВу заснована на ДјВу‑либреу",
        "Description[sv]": "DjVu-gränssnitt baserat på DjVuLibre",
        "Description[tr]": "DjVuLibre tabanlı DjVu arka ucu",
        "Description[uk]": "Засіб обробки DjVu, заснований на DjVuLibre",
        "Description[x-test]": "xxDjVu backend based on DjVuLibrexx",
        "Description[zh_CN]": "基于 DjVuLibre 的 DjVu 后端",
        "Description[zh_TW]": "基於 DjVuLibre 的 DjVu 後端介面",
        "Id": "okular_djvu",
        "License": "GPL",
        "MimeTypes": [
            "image/vnd.djvu"
        ],
        "Name": "DjVu Backend",
        "Name[az]": "DjVu modulu",
        "Name[ca@valencia]": "Dorsal DjVu",
        "Name[ca]": "Dorsal DjVu",
        "Name[cs]": "Podpůrná vrstva DjVu",
        "Name[da]": "DjVu-backend",
        "Name[de]": "Anzeigemodul für DjVu",
        "Name[el]": "Σύστημα υποστήριξης djvu",
        "Name[en_GB]": "DjVu Backend",
        "Name[es]": "Motor para DjVu",
        "Name[et]": "DjVu taustaprogramm",
        "Name[eu]": "DjVu-ren bizkarraldekoa",
        "Name[fi]": "DjVu-taustaosa",
        "Name[fr]": "Moteur DjVu",
        "Name[gl]": "Infraestrutura para DjVu",
        "Name[ia]": "Retro-Administration de DjVu",
        "Name[it]": "Backend DjVu",
        "Name[ko]": "DjVu 백엔드",
        "Name[lt]": "DjVu programinė sąsaja",
        "Name[nl]": "DjVu-backend",
        "Name[nn]": "DjVu-motor",
        "Name[pl]": "Silnik DjVu",
        "Name[pt]": "Infra-Estrutura do DjVu",
        "Name[pt_BR]": "Infraestrutura DjVu",
        "Name[ru]": "Модуль поддержки формата DjVu",
        "Name[sk]": "DjVu Backend",
        "Name[sl]": "Zaledje za DjVu",
        "Name[sr@ijekavian]": "Позадина за ДјВу",
        "Name[sr@ijekavianlatin]": "Pozadina za DjVu",
        "Name[sr@latin]": "Pozadina za DjVu",
        "Name[sr]": "Позадина за ДјВу",
        "Name[sv]": "DjVu-gränssnitt",
        "Name[tr]": "DjVu Arka Ucu",
        "Name[uk]": "Модуль DjVu",
        "Name[x-test]": "xxDjVu Backendxx",
        "Name[zh_CN]": "DjVu 后端",
        "Name[zh_TW]": "DjVu 後端介面",
        "ServiceTypes": [
            "okular/Generator"
        ],
        "Version": "0.2.3"
    },
    "X-KDE-Priority": 2,
    "X-KDE-okularAPIVersion": 1,
    "X-KDE-okularHasInternalSettings": false
}
